Baron_hp1
…
passwords_cat_op <- passwords_cat_op[-c(1:2,4:8)]

passwords %>%
  semi_join(passwords_cat_op)

Joining with `by = join_by(category)`

# A tibble: 500 × 8
   popularity password category          guess…¹ guess…² hack_…³ stren…⁴ guess…⁵
        <dbl> <chr>    <chr>               <dbl> <chr>     <dbl>   <dbl>   <dbl>
 1          1 password password-related     6.91 years   2.17e+0       8 2.52e+3
 2          2 123456   simple-alphanume…   18.5  minutes 1.11e-5       4 1.29e-2
 3          3 12345678 simple-alphanume…    1.29 days    1.11e-3       4 1.29e+0
 4          4 1234     simple-alphanume…   11.1  seconds 1.11e-7       4 1.29e-4
 5          5 qwerty   simple-alphanume…    3.72 days    3.21e-3       8 3.72e+0
 6          6 12345    simple-alphanume…    1.85 minutes 1.11e-6       4 1.28e-3
 7          7 dragon   animal               3.72 days    3.21e-3       8 3.72e+0
 8          8 baseball sport                6.91 years   2.17e+0       4 2.52e+3
 9          9 football sport                6.91 years   2.17e+0       7 2.52e+3
10         10 letmein  password-related     3.19 months  8.35e-2       8 9.57e+1
# … with 490 more rows, and abbreviated variable names ¹​guess_time,
#   ²​guess_unit, ³​hack_sec, ⁴​strength, ⁵​guess_days

passwords %>%
  left_join(passwords_cat_op) %>%
  distinct(.keep_all = TRUE)

Joining with `by = join_by(category)`

Warning in left_join(., passwords_cat_op): Each row in `x` is expected to match at most 1 row in `y`.
ℹ Row 1 of `x` matches multiple rows.
ℹ If multiple matches are expected, set `multiple = "all"` to silence this
  warning.

# A tibble: 500 × 9
   popularity password category  guess…¹ guess…² hack_…³ stren…⁴ guess…⁵ categ…⁶
        <dbl> <chr>    <chr>       <dbl> <chr>     <dbl>   <dbl>   <dbl> <chr>  
 1          1 password password…    6.91 years   2.17e+0       8 2.52e+3 bad    
 2          2 123456   simple-a…   18.5  minutes 1.11e-5       4 1.29e-2 adequa…
 3          3 12345678 simple-a…    1.29 days    1.11e-3       4 1.29e+0 adequa…
 4          4 1234     simple-a…   11.1  seconds 1.11e-7       4 1.29e-4 adequa…
 5          5 qwerty   simple-a…    3.72 days    3.21e-3       8 3.72e+0 adequa…
 6          6 12345    simple-a…    1.85 minutes 1.11e-6       4 1.28e-3 adequa…
 7          7 dragon   animal       3.72 days    3.21e-3       8 3.72e+0 cute   
 8          8 baseball sport        6.91 years   2.17e+0       4 2.52e+3 ok     
 9          9 football sport        6.91 years   2.17e+0       7 2.52e+3 ok     
10         10 letmein  password…    3.19 months  8.35e-2       8 9.57e+1 bad    
# … with 490 more rows, and abbreviated variable names ¹​guess_time,
#   ²​guess_unit, ³​hack_sec, ⁴​strength, ⁵​guess_days, ⁶​category_op
…
passwords %>%
  filter(password == "snowball")

# A tibble: 1 × 8
  popularity password category guess_time guess_unit hack_sec strength guess_d…¹
       <dbl> <chr>    <chr>         <dbl> <chr>         <dbl>    <dbl>     <dbl>
1        477 snowball name           6.91 years          2.17        8     2522.
# … with abbreviated variable name ¹​guess_days

I thought it’d be fun to add this.

passwords %>%
  mutate(statement = str_glue("The password is {password}"))

# A tibble: 500 × 9
   popularity password category  guess…¹ guess…² hack_…³ stren…⁴ guess…⁵ state…⁶
        <dbl> <chr>    <chr>       <dbl> <chr>     <dbl>   <dbl>   <dbl> <glue> 
 1          1 password password…    6.91 years   2.17e+0       8 2.52e+3 The pa…
 2          2 123456   simple-a…   18.5  minutes 1.11e-5       4 1.29e-2 The pa…
 3          3 12345678 simple-a…    1.29 days    1.11e-3       4 1.29e+0 The pa…
 4          4 1234     simple-a…   11.1  seconds 1.11e-7       4 1.29e-4 The pa…
 5          5 qwerty   simple-a…    3.72 days    3.21e-3       8 3.72e+0 The pa…
 6          6 12345    simple-a…    1.85 minutes 1.11e-6       4 1.28e-3 The pa…
 7          7 dragon   animal       3.72 days    3.21e-3       8 3.72e+0 The pa…
 8          8 baseball sport        6.91 years   2.17e+0       4 2.52e+3 The pa…
 9          9 football sport        6.91 years   2.17e+0       7 2.52e+3 The pa…
10         10 letmein  password…    3.19 months  8.35e-2       8 9.57e+1 The pa…
# … with 490 more rows, and abbreviated variable names ¹​guess_time,
#   ²​guess_unit, ³​hack_sec, ⁴​strength, ⁵​guess_days, ⁶​statement
…
